{
    "os": "Linux-5.4.188+-x86_64-with-Ubuntu-18.04-bionic",
    "python": "3.7.13",
    "heartbeatAt": "2022-07-06T20:44:13.630485",
    "startedAt": "2022-07-06T20:44:10.789163",
    "docker": null,
    "gpu": "Tesla T4",
    "gpu_count": 1,
    "cpu_count": 2,
    "cuda": null,
    "args": null,
    "state": "running",
    "program": "TPOT&H2O.ipynb",
    "colab": "https://colab.research.google.com/notebook#fileId=12VsdDesvXrSWtod0_mxQSlGa_C5Y9-66",
    "host": "81b3e76753b1",
    "username": "root",
    "executable": "/usr/bin/python3"
}
